{
  "runner": {
    "addAmount": {
      "rule": {
        "type": "operation", "operator": "ContainsKey",
        "parameters": [{"type": "rule", "rule": "name"}, {"type": "path", "path": "users"}]},
      "side-effects": [
        {"type": "change", "path": {"type": "input", "input": "name", "root": "users"},
          "value": {"type": "operation", "operator": "Add",
            "parameters": [{"type": "rule", "rule": "amount"}, {"type": "path", "path": {"type": "input", "input": "name", "root": "users"}}]}
        },
        {"type": "change", "path": "output",
          "value": {"type": "map",
            "map": [{"key": {"type": "value", "value": "name"}, "value": {"type": "input", "input": "name"}},
              {"key": {"type": "value", "value": "amount"}, "value": {"type": "input", "input": "amount"}},
              {"key": {"type": "value", "value": "accumulated"}, "value": {"type": "operation", "operator": "Add", "parameters": [
                {"type": "input", "input": "amount"}, {"type": "path" , "path": {"type": "input", "input": "name", "root": "users"}}]}}
            ]}}]},
    "timerRule": {
      "timer": {
        "initialDelay": 5000,
        "interval": 30000
      },
      "stopRule": {"type": "operation", "operator": "GreaterOrEquals",
        "parameters": [{"type": "path", "path": "users.peter"},{"type":"value","value": 160}]},
      "timerRule": {"type": "operation", "operator": "LessThan",
        "parameters": [{"type": "path", "path": "users.peter"},{"type":"value","value": 160}]},
      "side-effects": [{"type": "change", "path": "output",
          "value": {"type": "value", "value": "Peter has NOT over done it"}}]


    },
    "timerRule2": {
      "timer": {
        "initialDelay": 5000,
        "interval": 30000
      },
      "stopRule": {"type": "operation", "operator": "GreaterOrEquals",
        "parameters": [{"type": "path", "path": "users.peter"},{"type":"value","value": 160}]},
      "timerRule": {"type": "operation", "operator": "GreaterOrEquals",
        "parameters": [{"type": "path", "path": "users.peter"},{"type":"value","value": 160}]},
      "side-effects": [{"type": "change", "path": "output",
        "value": {"type": "value", "value": "Peter HAS over done it"}}]


    }}
}