{
  "gameNumber":0,
  "gameStage":"initialCards",
  "aceCheck": false,
  "maxGames":5,
  "playerBets":0,
  "playerWins":0,
  "push":10,
  "bet": 10,
  "win":20,
  "blackJack": 25,
  "insurancePay": 5,
  "insuranceReceive": 10,
  "playerPoints":{"hand":1,"aces":false,"points": 0},
  "playerSplitPoints":{"hand":1,"aces":false,"points": 0},
  "dealerPoints":{"hand":1,"aces":false,"points": 0},
  "playerHandLength": 0,
  "isDealerBlackJack": false,
  "playerHand":{"hand": [],"splitLevel": 0,"double": false},
  "playerSplitHand":{"hand": [],"splitLevel": 0,"double": false},
  "playerFirstCard": {"rank":"ACE","value":1},
  "playerSecondCard": {"rank":"ACE","value":1},
  "dealerFirstCard": {"rank":"ACE","value":1},
  "dealerSecondCard": {"rank":"ACE","value":1},
  "newCard": {"rank":"ACE","value":1},
  "playerBlackJack": false,
  "playerSplitBlackJack": false,
  "dealerBlackJack": false,
  "dealerPeak": false,
  "dealerHand":[],
  "randomMax":12,
  "randomMin": 0,
  "charlie": 7,
  "doubleMax": 11,
  "doubleMin": 10,
  "hasSplit": false,
  "levelOfSplit": 0,
  "maxSplit": 1,
  "hasDoubled": false,
  "insuranceAllowedInGame": true,
  "insuranceAllowedForHand": false,
  "insuranceUsed": false,
  "decisionList":[],
  "shoe":[
    {"rank":"ACE","value":1},
    {"rank":2,"value":2},
    {"rank":3,"value":3},
    {"rank":4,"value":4},
    {"rank":5,"value":5},
    {"rank":6,"value":6},
    {"rank":7,"value":7},
    {"rank":8,"value":8},
    {"rank":9,"value":9},
    {"rank":10,"value":10},
    {"rank":"JACK","value":10},
    {"rank":"QUEEN","value":10},
    {"rank":"KING","value":10}
  ],
  "dealerProbabilities": [
    {"current": 2,"outcome": 17,"probability":0.1398091395 },
    {"current": 2,"outcome": 18,"probability":0.1349073504 },
    {"current": 2,"outcome": 19,"probability":0.1296554334 },
    {"current": 2,"outcome": 20,"probability":0.1240264558 },
    {"current": 2,"outcome": 21,"probability":0.1179934845 },
    {"current": 2,"outcome": 22,"probability":0.3536081364 },

    {"current": 3,"outcome": 17,"probability":0.1350339878 },
    {"current": 3,"outcome": 18,"probability":0.1304823265 },
    {"current": 3,"outcome": 19,"probability":0.1255805373 },
    {"current": 3,"outcome": 20,"probability":0.1203286204 },
    {"current": 3,"outcome": 21,"probability":0.1146996427 },
    {"current": 3,"outcome": 22,"probability":0.3738748854 },

    {"current": 4,"outcome": 17,"probability":0.1304897358 },
    {"current": 4,"outcome": 18,"probability":0.1259380745 },
    {"current": 4,"outcome": 19,"probability":0.1213864131 },
    {"current": 4,"outcome": 20,"probability":0.116484624 },
    {"current": 4,"outcome": 21,"probability":0.111232707 },
    {"current": 4,"outcome": 22,"probability":0.3944684455 },

    {"current": 5,"outcome": 17,"probability":0.1222512853 },
    {"current": 5,"outcome": 18,"probability":0.1222512853 },
    {"current": 5,"outcome": 19,"probability":0.1176996239 },
    {"current": 5,"outcome": 20,"probability":0.1131479626 },
    {"current": 5,"outcome": 21,"probability":0.1082461734 },
    {"current": 5,"outcome": 22,"probability":0.4164036696 },

    {"current": 6,"outcome": 17,"probability":0.1654381765 },
    {"current": 6,"outcome": 18,"probability":0.1062665789 },
    {"current": 6,"outcome": 19,"probability":0.1062665789 },
    {"current": 6,"outcome": 20,"probability":0.1017149175 },
    {"current": 6,"outcome": 21,"probability":0.09716325616 },
    {"current": 6,"outcome": 22,"probability":0.4231504921 },

    {"current": 7,"outcome": 17,"probability":0.3685661938 },
    {"current": 7,"outcome": 18,"probability":0.137796963 },
    {"current": 7,"outcome": 19,"probability":0.07862536539 },
    {"current": 7,"outcome": 20,"probability":0.07862536539 },
    {"current": 7,"outcome": 21,"probability":0.07407370404 },
    {"current": 7,"outcome": 22,"probability":0.2623124084 },

    {"current": 8,"outcome": 17,"probability":0.1285665444 },
    {"current": 8,"outcome": 18,"probability":0.3593357752 },
    {"current": 8,"outcome": 19,"probability":0.1285665444 },
    {"current": 8,"outcome": 20,"probability":0.06939494682 },
    {"current": 8,"outcome": 21,"probability":0.06939494682 },
    {"current": 8,"outcome": 22,"probability":0.2447412423 },

    {"current": 9,"outcome": 17,"probability":0.1199954415 },
    {"current": 9,"outcome": 18,"probability":0.1199954415 },
    {"current": 9,"outcome": 19,"probability":0.3507646723 },
    {"current": 9,"outcome": 20,"probability":0.1199954415 },
    {"current": 9,"outcome": 21,"probability":0.06082384385 },
    {"current": 9,"outcome": 22,"probability":0.2284251594 },

    {"current": 10,"outcome": 17,"probability":0.1207097001 },
    {"current": 10,"outcome": 18,"probability":0.1207097001 },
    {"current": 10,"outcome": 19,"probability":0.1207097001 },
    {"current": 10,"outcome": 20,"probability":0.3707097001 },
    {"current": 10,"outcome": 21,"probability":0.03737636673 },
    {"current": 10,"outcome": 22,"probability":0.229784833 },

    {"current": 1,"outcome": 17,"probability":0.1889172997 },
    {"current": 1,"outcome": 18,"probability":0.1889172997 },
    {"current": 1,"outcome": 19,"probability":0.1889172997 },
    {"current": 1,"outcome": 20,"probability":0.1889172997 },
    {"current": 1,"outcome": 21,"probability":0.07780618858 },
    {"current": 1,"outcome": 22,"probability":0.1665246127 }
  ],

  "playerHardDoubleProbabilities": [

    {"dealer": 1,"player": 4,"probability": -1.333901549},
    {"dealer": 1,"player": 5,"probability": -1.333901549},
    {"dealer": 1,"player": 6,"probability": -1.304837349},
    {"dealer": 1,"player": 7,"probability": -1.13045215},
    {"dealer": 1,"player": 8,"probability": -0.8107459502},
    {"dealer": 1,"player": 9,"probability": -0.4329113508},
    {"dealer": 1,"player": 10,"probability": -0.01404236865},
    {"dealer": 1,"player": 11,"probability": 0.1090607798},
    {"dealer": 1,"player": 12,"probability": -0.8293439371},
    {"dealer": 1,"player": 13,"probability": -0.8805822794},
    {"dealer": 1,"player": 14,"probability": -0.9318206218},
    {"dealer": 1,"player": 15,"probability": -0.9830589641},
    {"dealer": 1,"player": 16,"probability": -1.034297307},
    {"dealer": 1,"player": 17,"probability": -1.114599849},
    {"dealer": 1,"player": 18,"probability": -1.253030791},
    {"dealer": 1,"player": 19,"probability": -1.449590133},
    {"dealer": 1,"player": 20,"probability": -1.704277875},
    {"dealer": 1,"player": 21,"probability": -2},

    {"dealer": 2,"player": 4,"probability": -0.5855674544},
    {"dealer": 2,"player": 5,"probability": -0.5855674544},
    {"dealer": 2,"player": 6,"probability": -0.564058356},
    {"dealer": 2,"player": 7,"probability": -0.4357578871},
    {"dealer": 2,"player": 8,"probability": -0.2044905205},
    {"dealer": 2,"player": 9,"probability": 0.06111850317},
    {"dealer": 2,"player": 10,"probability": 0.3589394124},
    {"dealer": 2,"player": 11,"probability": 0.4706409233},
    {"dealer": 2,"player": 12,"probability": -0.5067799719},
    {"dealer": 2,"player": 13,"probability": -0.6155824754},
    {"dealer": 2,"player": 14,"probability": -0.7243849789},
    {"dealer": 2,"player": 15,"probability": -0.8331874825},
    {"dealer": 2,"player": 16,"probability": -0.941989986},
    {"dealer": 2,"player": 17,"probability": -1.072301588},
    {"dealer": 2,"player": 18,"probability": -1.244877265},
    {"dealer": 2,"player": 19,"probability": -1.458154909},
    {"dealer": 2,"player": 20,"probability": -1.710460536},
    {"dealer": 2,"player": 21,"probability": -2},

    {"dealer": 3,"player": 4,"probability": -0.5045004585},
    {"dealer": 3,"player": 5,"probability": -0.5045004585},
    {"dealer": 3,"player": 6,"probability": -0.4837259988},
    {"dealer": 3,"player": 7,"probability": -0.3597794964},
    {"dealer": 3,"player": 8,"probability": -0.1362160951},
    {"dealer": 3,"player": 9,"probability": 0.1208163533},
    {"dealer": 3,"player": 10,"probability": 0.4093206702},
    {"dealer": 3,"player": 11,"probability": 0.5177952531},
    {"dealer": 3,"player": 12,"probability": -0.4673817996},
    {"dealer": 3,"player": 13,"probability": -0.5824202259},
    {"dealer": 3,"player": 14,"probability": -0.6974586521},
    {"dealer": 3,"player": 15,"probability": -0.8124970784},
    {"dealer": 3,"player": 16,"probability": -0.9275355047},
    {"dealer": 3,"player": 17,"probability": -1.063348391},
    {"dealer": 3,"player": 18,"probability": -1.24000994},
    {"dealer": 3,"player": 19,"probability": -1.456065777},
    {"dealer": 3,"player": 20,"probability": -1.709953791},
    {"dealer": 3,"player": 21,"probability": -2},

    {"dealer": 4,"player": 4,"probability": -0.422126218},
    {"dealer": 4,"player": 5,"probability": -0.422126218},
    {"dealer": 4,"player": 6,"probability": -0.402050874},
    {"dealer": 4,"player": 7,"probability": -0.2822990657},
    {"dealer": 4,"player": 8,"probability": -0.06637207115},
    {"dealer": 4,"player": 9,"probability": 0.1819489341},
    {"dealer": 4,"player": 10,"probability": 0.4609402438},
    {"dealer": 4,"player": 11,"probability": 0.5660405504},
    {"dealer": 4,"player": 12,"probability": -0.4270731065},
    {"dealer": 4,"player": 13,"probability": -0.5484480128},
    {"dealer": 4,"player": 14,"probability": -0.6698229191},
    {"dealer": 4,"player": 15,"probability": -0.7911978254},
    {"dealer": 4,"player": 16,"probability": -0.9125727317},
    {"dealer": 4,"player": 17,"probability": -1.054022982},
    {"dealer": 4,"player": 18,"probability": -1.234923665},
    {"dealer": 4,"player": 19,"probability": -1.453874268},
    {"dealer": 4,"player": 20,"probability": -1.709420416},
    {"dealer": 4,"player": 21,"probability": -2},

    {"dealer": 5,"player": 4,"probability": -0.3343853217},
    {"dealer": 5,"player": 5,"probability": -0.3343853217},
    {"dealer": 5,"player": 6,"probability": -0.3155774316},
    {"dealer": 5,"player": 7,"probability": -0.2027300914},
    {"dealer": 5,"player": 8,"probability": 0.003456443485},
    {"dealer": 5,"player": 9,"probability": 0.2430572249},
    {"dealer": 5,"player": 10,"probability": 0.512517109},
    {"dealer": 5,"player": 11,"probability": 0.6146990179},
    {"dealer": 5,"player": 12,"probability": -0.3865423389},
    {"dealer": 5,"player": 13,"probability": -0.5146665449},
    {"dealer": 5,"player": 14,"probability": -0.6427907509},
    {"dealer": 5,"player": 15,"probability": -0.7709149569},
    {"dealer": 5,"player": 16,"probability": -0.899039163},
    {"dealer": 5,"player": 17,"probability": -1.045971259},
    {"dealer": 5,"player": 18,"probability": -1.230519135},
    {"dealer": 5,"player": 19,"probability": -1.451982536},
    {"dealer": 5,"player": 20,"probability": -1.70896095},
    {"dealer": 5,"player": 21,"probability": -2},

    {"dealer": 6,"player": 4,"probability": -0.3073980317},
    {"dealer": 6,"player": 5,"probability": -0.3073980317},
    {"dealer": 6,"player": 6,"probability": -0.2819460045},
    {"dealer": 6,"player": 7,"probability": -0.1383371643},
    {"dealer": 6,"player": 8,"probability": 0.08701519813},
    {"dealer": 6,"player": 9,"probability": 0.3170547457},
    {"dealer": 6,"player": 10,"probability": 0.5755901686},
    {"dealer": 6,"player": 11,"probability": 0.6673800949},
    {"dealer": 6,"player": 12,"probability": -0.3410523998},
    {"dealer": 6,"player": 13,"probability": -0.4712525512},
    {"dealer": 6,"player": 14,"probability": -0.6014527026},
    {"dealer": 6,"player": 15,"probability": -0.731652854},
    {"dealer": 6,"player": 16,"probability": -0.8618530055},
    {"dealer": 6,"player": 17,"probability": -1.017505184},
    {"dealer": 6,"player": 18,"probability": -1.214958094},
    {"dealer": 6,"player": 19,"probability": -1.445108413},
    {"dealer": 6,"player": 20,"probability": -1.707255886},
    {"dealer": 6,"player": 21,"probability": -2},

    {"dealer": 7,"player": 4,"probability": -0.9507503666},
    {"dealer": 7,"player": 5,"probability": -0.9507503666},
    {"dealer": 7,"player": 6,"probability": -0.8940478752},
    {"dealer": 7,"player": 7,"probability": -0.5893358857},
    {"dealer": 7,"player": 8,"probability": -0.187729555},
    {"dealer": 7,"player": 9,"probability": 0.104250352},
    {"dealer": 7,"player": 10,"probability": 0.3924124553},
    {"dealer": 7,"player": 11,"probability": 0.4628889489},
    {"dealer": 7,"player": 12,"probability": -0.5067116211},
    {"dealer": 7,"player": 13,"probability": -0.5874231313},
    {"dealer": 7,"player": 14,"probability": -0.6681346416},
    {"dealer": 7,"player": 15,"probability": -0.7488461519},
    {"dealer": 7,"player": 16,"probability": -0.8295576621},
    {"dealer": 7,"player": 17,"probability": -0.9669716638},
    {"dealer": 7,"player": 18,"probability": -1.182287689},
    {"dealer": 7,"player": 19,"probability": -1.430899458},
    {"dealer": 7,"player": 20,"probability": -1.703703647},
    {"dealer": 7,"player": 21,"probability": -2},

    {"dealer": 8,"player": 4,"probability": -1.021035031},
    {"dealer": 8,"player": 5,"probability": -1.021035031},
    {"dealer": 8,"player": 6,"probability": -1.001255563},
    {"dealer": 8,"player": 7,"probability": -0.8470757938},
    {"dealer": 8,"player": 8,"probability": -0.4519868487},
    {"dealer": 8,"player": 9,"probability": -0.02644228965},
    {"dealer": 8,"player": 10,"probability": 0.2866357169},
    {"dealer": 8,"player": 11,"probability": 0.3506925909},
    {"dealer": 8,"player": 12,"probability": -0.6156608928},
    {"dealer": 8,"player": 13,"probability": -0.6909658904},
    {"dealer": 8,"player": 14,"probability": -0.7662708881},
    {"dealer": 8,"player": 15,"probability": -0.8415758857},
    {"dealer": 8,"player": 16,"probability": -0.9168808833},
    {"dealer": 8,"player": 17,"probability": -1.011965349},
    {"dealer": 8,"player": 18,"probability": -1.182111711},
    {"dealer": 8,"player": 19,"probability": -1.427319967},
    {"dealer": 8,"player": 20,"probability": -1.702983838},
    {"dealer": 8,"player": 21,"probability": -2},

    {"dealer": 9,"player": 4,"probability": -1.086299362},
    {"dealer": 9,"player": 5,"probability": -1.086299362},
    {"dealer": 9,"player": 6,"probability": -1.067838525},
    {"dealer": 9,"player": 7,"probability": -0.9570735022},
    {"dealer": 9,"player": 8,"probability": -0.718501335},
    {"dealer": 9,"player": 9,"probability": -0.3009956591},
    {"dealer": 9,"player": 10,"probability": 0.1443283684},
    {"dealer": 9,"player": 11,"probability": 0.2277834232},
    {"dealer": 9,"player": 12,"probability": -0.737505621},
    {"dealer": 9,"player": 13,"probability": -0.8077902855},
    {"dealer": 9,"player": 14,"probability": -0.8780749499},
    {"dealer": 9,"player": 15,"probability": -0.9483596144},
    {"dealer": 9,"player": 16,"probability": -1.018644279},
    {"dealer": 9,"player": 17,"probability": -1.10738978},
    {"dealer": 9,"player": 18,"probability": -1.233056956},
    {"dealer": 9,"player": 19,"probability": -1.431148765},
    {"dealer": 9,"player": 20,"probability": -1.701665207},
    {"dealer": 9,"player": 21,"probability": -2},

    {"dealer": 10,"player": 4,"probability": -1.080860668},
    {"dealer": 10,"player": 5,"probability": -1.080860668},
    {"dealer": 10,"player": 6,"probability": -1.062289945},
    {"dealer": 10,"player": 7,"probability": -0.9508656064},
    {"dealer": 10,"player": 8,"probability": -0.7465876524},
    {"dealer": 10,"player": 9,"probability": -0.4667067138},
    {"dealer": 10,"player": 10,"probability": -0.008658688035},
    {"dealer": 10,"player": 11,"probability": 0.1796887274},
    {"dealer": 10,"player": 12,"probability": -0.7968405904},
    {"dealer": 10,"player": 13,"probability": -0.8675436159},
    {"dealer": 10,"player": 14,"probability": -0.9382466415},
    {"dealer": 10,"player": 15,"probability": -1.008949667},
    {"dealer": 10,"player": 16,"probability": -1.079652693},
    {"dealer": 10,"player": 17,"probability": -1.168926441},
    {"dealer": 10,"player": 18,"probability": -1.295341636},
    {"dealer": 10,"player": 19,"probability": -1.458898277},
    {"dealer": 10,"player": 20,"probability": -1.698057903},
    {"dealer": 10,"player": 21,"probability": -2}

  ],
  "playerSoftDoubleProbabilities": [
    {"dealer": 1,"player": 12,"probability": -0.6243905677},
    {"dealer": 1,"player": 13,"probability": -0.6243905677},
    {"dealer": 1,"player": 14,"probability": -0.6243905677},
    {"dealer": 1,"player": 15,"probability": -0.6243905677},
    {"dealer": 1,"player": 16,"probability": -0.6243905677},
    {"dealer": 1,"player": 17,"probability": -0.5371979678},
    {"dealer": 1,"player": 18,"probability": -0.3628127681},
    {"dealer": 1,"player": 19,"probability": -0.1884275684},
    {"dealer": 1,"player": 20,"probability": -0.01404236865},
    {"dealer": 1,"player": 21,"probability": 0.1090607798},

    {"dealer": 2,"player": 12,"probability": -0.07156995791},
    {"dealer": 2,"player": 13,"probability": -0.07156995791},
    {"dealer": 2,"player": 14,"probability": -0.07156995791},
    {"dealer": 2,"player": 15,"probability": -0.07156995791},
    {"dealer": 2,"player": 16,"probability": -0.07156995791},
    {"dealer": 2,"player": 17,"probability": -0.007042662742},
    {"dealer": 2,"player": 18,"probability": 0.1197495634},
    {"dealer": 2,"player": 19,"probability": 0.2418554636},
    {"dealer": 2,"player": 20,"probability": 0.3589394124},
    {"dealer": 2,"player": 21,"probability": 0.4706409233},

    {"dealer": 3,"player": 12,"probability": -0.00722809451},
    {"dealer": 3,"player": 13,"probability": -0.00722809451},
    {"dealer": 3,"player": 14,"probability": -0.00722809451},
    {"dealer": 3,"player": 15,"probability": -0.00722809451},
    {"dealer": 3,"player": 16,"probability": -0.00722809451},
    {"dealer": 3,"player": 17,"probability": 0.05509528448},
    {"dealer": 3,"player": 18,"probability": 0.1776412757},
    {"dealer": 3,"player": 19,"probability": 0.2958241359},
    {"dealer": 3,"player": 20,"probability": 0.4093206702},
    {"dealer": 3,"player": 21,"probability": 0.5177952531},

    {"dealer": 4,"player": 12,"probability": 0.05842651874},
    {"dealer": 4,"player": 13,"probability": 0.05842651874},
    {"dealer": 4,"player": 14,"probability": 0.05842651874},
    {"dealer": 4,"player": 15,"probability": 0.05842651874},
    {"dealer": 4,"player": 16,"probability": 0.05842651874},
    {"dealer": 4,"player": 17,"probability": 0.1186525507},
    {"dealer": 4,"player": 18,"probability": 0.2370038478},
    {"dealer": 4,"player": 19,"probability": 0.3511536113},
    {"dealer": 4,"player": 20,"probability": 0.4609402438},
    {"dealer": 4,"player": 21,"probability": 0.5660405504},

    {"dealer": 5,"player": 12,"probability": 0.1259544852},
    {"dealer": 5,"player": 13,"probability": 0.1259544852},
    {"dealer": 5,"player": 14,"probability": 0.1259544852},
    {"dealer": 5,"player": 15,"probability": 0.1259544852},
    {"dealer": 5,"player": 16,"probability": 0.1259544852},
    {"dealer": 5,"player": 17,"probability": 0.1823781554},
    {"dealer": 5,"player": 18,"probability": 0.2952254956},
    {"dealer": 5,"player": 19,"probability": 0.4059720691},
    {"dealer": 5,"player": 20,"probability": 0.512517109},
    {"dealer": 5,"player": 21,"probability": 0.6146990179},

    {"dealer": 6,"player": 12,"probability": 0.1797482058},
    {"dealer": 6,"player": 13,"probability": 0.1797482058},
    {"dealer": 6,"player": 14,"probability": 0.1797482058},
    {"dealer": 6,"player": 15,"probability": 0.1797482058},
    {"dealer": 6,"player": 16,"probability": 0.1797482058},
    {"dealer": 6,"player": 17,"probability": 0.2561042873},
    {"dealer": 6,"player": 18,"probability": 0.3815064821},
    {"dealer": 6,"player": 19,"probability": 0.4795987087},
    {"dealer": 6,"player": 20,"probability": 0.5755901686},
    {"dealer": 6,"player": 21,"probability": 0.6673800949},

    {"dealer": 7,"player": 12,"probability": -0.18386558},
    {"dealer": 7,"player": 13,"probability": -0.18386558},
    {"dealer": 7,"player": 14,"probability": -0.18386558},
    {"dealer": 7,"player": 15,"probability": -0.18386558},
    {"dealer": 7,"player": 16,"probability": -0.18386558},
    {"dealer": 7,"player": 17,"probability": -0.01375810596},
    {"dealer": 7,"player": 18,"probability": 0.2199479664},
    {"dealer": 7,"player": 19,"probability": 0.3198351949},
    {"dealer": 7,"player": 20,"probability": 0.3924124553},
    {"dealer": 7,"player": 21,"probability": 0.4628889489},

    {"dealer": 8,"player": 12,"probability": -0.3144409024},
    {"dealer": 8,"player": 13,"probability": -0.3144409024},
    {"dealer": 8,"player": 14,"probability": -0.3144409024},
    {"dealer": 8,"player": 15,"probability": -0.3144409024},
    {"dealer": 8,"player": 16,"probability": -0.3144409024},
    {"dealer": 8,"player": 17,"probability": -0.2551024972},
    {"dealer": 8,"player": 18,"probability": -0.02991681124},
    {"dealer": 8,"player": 19,"probability": 0.1952688748},
    {"dealer": 8,"player": 20,"probability": 0.2866357169},
    {"dealer": 8,"player": 21,"probability": 0.3506925909},

    {"dealer": 9,"player": 12,"probability": -0.4563669633},
    {"dealer": 9,"player": 13,"probability": -0.4563669633},
    {"dealer": 9,"player": 14,"probability": -0.4563669633},
    {"dealer": 9,"player": 15,"probability": -0.4563669633},
    {"dealer": 9,"player": 16,"probability": -0.4563669633},
    {"dealer": 9,"player": 17,"probability": -0.4009844518},
    {"dealer": 9,"player": 18,"probability": -0.2902194289},
    {"dealer": 9,"player": 19,"probability": -0.07294553027},
    {"dealer": 9,"player": 20,"probability": 0.1443283684},
    {"dealer": 9,"player": 21,"probability": 0.2277834232},

    {"dealer": 10,"player": 12,"probability": -0.5140284882},
    {"dealer": 10,"player": 13,"probability": -0.5140284882},
    {"dealer": 10,"player": 14,"probability": -0.5140284882},
    {"dealer": 10,"player": 15,"probability": -0.5140284882},
    {"dealer": 10,"player": 16,"probability": -0.5140284882},
    {"dealer": 10,"player": 17,"probability": -0.458316319},
    {"dealer": 10,"player": 18,"probability": -0.3468919805},
    {"dealer": 10,"player": 19,"probability": -0.2354676419},
    {"dealer": 10,"player": 20,"probability": -0.008658688035},
    {"dealer": 10,"player": 21,"probability": 0.1796887274}
  ],
  "playerHardHitProbabilities": [
    {"dealer": 1,"player": 4,"probability": -0.2530769944},
    {"dealer": 1,"player": 5,"probability": -0.2785745976},
    {"dealer": 1,"player": 6,"probability": -0.304146631},
    {"dealer": 1,"player": 7,"probability": -0.3100716503},
    {"dealer": 1,"player": 8,"probability": -0.1970288106},
    {"dealer": 1,"player": 9,"probability": -0.06568077878},
    {"dealer": 1,"player": 10,"probability": 0.08144970795},
    {"dealer": 1,"player": 11,"probability": 0.1430012822},
    {"dealer": 1,"player": 12,"probability": -0.3505403404},
    {"dealer": 1,"player": 13,"probability": -0.3969303161},
    {"dealer": 1,"player": 14,"probability": -0.4400067221},
    {"dealer": 1,"player": 15,"probability": -0.480006242},
    {"dealer": 1,"player": 16,"probability": -0.5171486533},
    {"dealer": 1,"player": 17,"probability": -0.5572999244},
    {"dealer": 1,"player": 18,"probability": -0.6265153955},
    {"dealer": 1,"player": 19,"probability": -0.7247950666},
    {"dealer": 1,"player": 20,"probability": -0.8521389376},
    {"dealer": 1,"player": 21,"probability": -1},

    {"dealer": 2,"player": 4,"probability": -0.1149133276},
    {"dealer": 2,"player": 5,"probability": -0.1282155671},
    {"dealer": 2,"player": 6,"probability": -0.1407591175},
    {"dealer": 2,"player": 7,"probability": -0.1091834279},
    {"dealer": 2,"player": 8,"probability": -0.02179818801},
    {"dealer": 2,"player": 9,"probability": 0.07444603758},
    {"dealer": 2,"player": 10,"probability": 0.182499994},
    {"dealer": 2,"player": 11,"probability": 0.2383507495},
    {"dealer": 2,"player": 12,"probability": -0.253389986},
    {"dealer": 2,"player": 13,"probability": -0.3077912377},
    {"dealer": 2,"player": 14,"probability": -0.3621924895},
    {"dealer": 2,"player": 15,"probability": -0.4165937412},
    {"dealer": 2,"player": 16,"probability": -0.470994993},
    {"dealer": 2,"player": 17,"probability": -0.5361507939},
    {"dealer": 2,"player": 18,"probability": -0.6224386326},
    {"dealer": 2,"player": 19,"probability": -0.7290774546},
    {"dealer": 2,"player": 20,"probability": -0.855230268},
    {"dealer": 2,"player": 21,"probability": -1},

    {"dealer": 3,"player": 4,"probability": -0.0826133143},
    {"dealer": 3,"player": 5,"probability": -0.09531022726},
    {"dealer": 3,"player": 6,"probability": -0.107291078},
    {"dealer": 3,"player": 7,"probability": -0.0765829819},
    {"dealer": 3,"player": 8,"probability": 0.008005262531},
    {"dealer": 3,"player": 9,"probability": 0.1012647017},
    {"dealer": 3,"player": 10,"probability": 0.2060879758},
    {"dealer": 3,"player": 11,"probability": 0.2603252673},
    {"dealer": 3,"player": 12,"probability": -0.2336908998},
    {"dealer": 3,"player": 13,"probability": -0.2912101129},
    {"dealer": 3,"player": 14,"probability": -0.3487293261},
    {"dealer": 3,"player": 15,"probability": -0.4062485392},
    {"dealer": 3,"player": 16,"probability": -0.4637677523},
    {"dealer": 3,"player": 17,"probability": -0.5316741953},
    {"dealer": 3,"player": 18,"probability": -0.6200049701},
    {"dealer": 3,"player": 19,"probability": -0.7280328883},
    {"dealer": 3,"player": 20,"probability": -0.8549768956},
    {"dealer": 3,"player": 21,"probability": -1},

    {"dealer": 4,"player": 4,"probability": -0.04936742011},
    {"dealer": 4,"player": 5,"probability": -0.0614794642},
    {"dealer": 4,"player": 6,"probability": -0.07291714193},
    {"dealer": 4,"player": 7,"probability": -0.043021794},
    {"dealer": 4,"player": 8,"probability": 0.03878447328},
    {"dealer": 4,"player": 9,"probability": 0.1289808812},
    {"dealer": 4,"player": 10,"probability": 0.2304701219},
    {"dealer": 4,"player": 11,"probability": 0.2830202752},
    {"dealer": 4,"player": 12,"probability": -0.2135365532},
    {"dealer": 4,"player": 13,"probability": -0.2742240064},
    {"dealer": 4,"player": 14,"probability": -0.3349114596},
    {"dealer": 4,"player": 15,"probability": -0.3955989127},
    {"dealer": 4,"player": 16,"probability": -0.4562863659},
    {"dealer": 4,"player": 17,"probability": -0.527011491},
    {"dealer": 4,"player": 18,"probability": -0.6174618323},
    {"dealer": 4,"player": 19,"probability": -0.7269371342},
    {"dealer": 4,"player": 20,"probability": -0.8547102082},
    {"dealer": 4,"player": 21,"probability": -1},

    {"dealer": 5,"player": 4,"probability": -0.01237992652},
    {"dealer": 5,"player": 5,"probability": -0.02397897039},
    {"dealer": 5,"player": 6,"probability": -0.03491597333},
    {"dealer": 5,"player": 7,"probability": -0.007271360903},
    {"dealer": 5,"player": 8,"probability": 0.07080463598},
    {"dealer": 5,"player": 9,"probability": 0.1580318563},
    {"dealer": 5,"player": 10,"probability": 0.2562585545},
    {"dealer": 5,"player": 11,"probability": 0.307349509},
    {"dealer": 5,"player": 12,"probability": -0.1932711694},
    {"dealer": 5,"player": 13,"probability": -0.2573332724},
    {"dealer": 5,"player": 14,"probability": -0.3213953755},
    {"dealer": 5,"player": 15,"probability": -0.3854574785},
    {"dealer": 5,"player": 16,"probability": -0.4495195815},
    {"dealer": 5,"player": 17,"probability": -0.5229856295},
    {"dealer": 5,"player": 18,"probability": -0.6152595676},
    {"dealer": 5,"player": 19,"probability": -0.7259912679},
    {"dealer": 5,"player": 20,"probability": -0.8544804749},
    {"dealer": 5,"player": 21,"probability": -1},

    {"dealer": 6,"player": 4,"probability": 0.01113041728},
    {"dealer": 6,"player": 5,"probability": -0.001186337838},
    {"dealer": 6,"player": 6,"probability": -0.01300583553},
    {"dealer": 6,"player": 7,"probability": 0.02918534235},
    {"dealer": 6,"player": 8,"probability": 0.1149601501},
    {"dealer": 6,"player": 9,"probability": 0.1960188393},
    {"dealer": 6,"player": 10,"probability": 0.2877950843},
    {"dealer": 6,"player": 11,"probability": 0.3336900475},
    {"dealer": 6,"player": 12,"probability": -0.1705261999},
    {"dealer": 6,"player": 13,"probability": -0.2356262756},
    {"dealer": 6,"player": 14,"probability": -0.3007263513},
    {"dealer": 6,"player": 15,"probability": -0.365826427},
    {"dealer": 6,"player": 16,"probability": -0.4309265027},
    {"dealer": 6,"player": 17,"probability": -0.508752592},
    {"dealer": 6,"player": 18,"probability": -0.6074790471},
    {"dealer": 6,"player": 19,"probability": -0.7225542066},
    {"dealer": 6,"player": 20,"probability": -0.8536279428},
    {"dealer": 6,"player": 21,"probability": -1},

    {"dealer": 7,"player": 4,"probability": -0.08827920106},
    {"dealer": 7,"player": 5,"probability": -0.1194474419},
    {"dealer": 7,"player": 6,"probability": -0.1519327072},
    {"dealer": 7,"player": 7,"probability": -0.06880779958},
    {"dealer": 7,"player": 8,"probability": 0.08220743936},
    {"dealer": 7,"player": 9,"probability": 0.1718678599},
    {"dealer": 7,"player": 10,"probability": 0.2569087443},
    {"dealer": 7,"player": 11,"probability": 0.2921469911},
    {"dealer": 7,"player": 12,"probability": -0.2128477145},
    {"dealer": 7,"player": 13,"probability": -0.2690728778},
    {"dealer": 7,"player": 14,"probability": -0.3212819579},
    {"dealer": 7,"player": 15,"probability": -0.3697618181},
    {"dealer": 7,"player": 16,"probability": -0.4147788311},
    {"dealer": 7,"player": 17,"probability": -0.4834858319},
    {"dealer": 7,"player": 18,"probability": -0.5911438447},
    {"dealer": 7,"player": 19,"probability": -0.715449729},
    {"dealer": 7,"player": 20,"probability": -0.8518518234},
    {"dealer": 7,"player": 21,"probability": -1},

    {"dealer": 8,"player": 4,"probability": -0.1593341527},
    {"dealer": 8,"player": 5,"probability": -0.1880933039},
    {"dealer": 8,"player": 6,"probability": -0.2172418813},
    {"dealer": 8,"player": 7,"probability": -0.2106047687},
    {"dealer": 8,"player": 8,"probability": -0.05989827566},
    {"dealer": 8,"player": 9,"probability": 0.09837621744},
    {"dealer": 8,"player": 10,"probability": 0.1979537083},
    {"dealer": 8,"player": 11,"probability": 0.2299821453},
    {"dealer": 8,"player": 12,"probability": -0.271574805},
    {"dealer": 8,"player": 13,"probability": -0.3236051761},
    {"dealer": 8,"player": 14,"probability": -0.3719190921},
    {"dealer": 8,"player": 15,"probability": -0.4167820141},
    {"dealer": 8,"player": 16,"probability": -0.4584404416},
    {"dealer": 8,"player": 17,"probability": -0.5059826746},
    {"dealer": 8,"player": 18,"probability": -0.5910558553},
    {"dealer": 8,"player": 19,"probability": -0.7136599836},
    {"dealer": 8,"player": 20,"probability": -0.851491919},
    {"dealer": 8,"player": 21,"probability": -1},

    {"dealer": 9,"player": 4,"probability": -0.2406661792},
    {"dealer": 9,"player": 5,"probability": -0.2666150534},
    {"dealer": 9,"player": 6,"probability": -0.2926407002},
    {"dealer": 9,"player": 7,"probability": -0.2853654405},
    {"dealer": 9,"player": 8,"probability": -0.210186332},
    {"dealer": 9,"player": 9,"probability": -0.05217805346},
    {"dealer": 9,"player": 10,"probability": 0.1165295911},
    {"dealer": 9,"player": 11,"probability": 0.1582571185},
    {"dealer": 9,"player": 12,"probability": -0.3400132806},
    {"dealer": 9,"player": 13,"probability": -0.3871551891},
    {"dealer": 9,"player": 14,"probability": -0.4309298185},
    {"dealer": 9,"player": 15,"probability": -0.4715776886},
    {"dealer": 9,"player": 16,"probability": -0.5093221394},
    {"dealer": 9,"player": 17,"probability": -0.5536948902},
    {"dealer": 9,"player": 18,"probability": -0.6165284782},
    {"dealer": 9,"player": 19,"probability": -0.7155743825},
    {"dealer": 9,"player": 20,"probability": -0.8508326034},
    {"dealer": 9,"player": 21,"probability": -1},

    {"dealer": 10,"player": 4,"probability": -0.2891979145},
    {"dealer": 10,"player": 5,"probability": -0.3134116434},
    {"dealer": 10,"player": 6,"probability": -0.3377494404},
    {"dealer": 10,"player": 7,"probability": -0.3190547914},
    {"dealer": 10,"player": 8,"probability": -0.2493750806},
    {"dealer": 10,"player": 9,"probability": -0.1529529849},
    {"dealer": 10,"player": 10,"probability": 0.02530852304},
    {"dealer": 10,"player": 11,"probability": 0.1194822308},
    {"dealer": 10,"player": 12,"probability": -0.3810429928},
    {"dealer": 10,"player": 13,"probability": -0.4252542076},
    {"dealer": 10,"player": 14,"probability": -0.4663074785},
    {"dealer": 10,"player": 15,"probability": -0.5044283729},
    {"dealer": 10,"player": 16,"probability": -0.5398263463},
    {"dealer": 10,"player": 17,"probability": -0.5844632206},
    {"dealer": 10,"player": 18,"probability": -0.647670818},
    {"dealer": 10,"player": 19,"probability": -0.7294491385},
    {"dealer": 10,"player": 20,"probability": -0.8490289513},
    {"dealer": 10,"player": 21,"probability": -1}
  ],

  "playerSoftHitProbabilities": [
    {"dealer": 1,"player": 12,"probability": -0.0204778777},
    {"dealer": 1,"player": 13,"probability": -0.05730804667},
    {"dealer": 1,"player": 14,"probability": -0.09387432477},
    {"dealer": 1,"player": 15,"probability": -0.1300265017},
    {"dealer": 1,"player": 16,"probability": -0.1656371721},
    {"dealer": 1,"player": 17,"probability": -0.1795693698},
    {"dealer": 1,"player": 18,"probability": -0.09293549177},
    {"dealer": 1,"player": 19,"probability": -0.005742891912},
    {"dealer": 1,"player": 20,"probability": 0.08144970795},
    {"dealer": 1,"player": 21,"probability": 0.1430012822},

    {"dealer": 2,"player": 12,"probability": 0.08183621605},
    {"dealer": 2,"player": 13,"probability": 0.0466361327},
    {"dealer": 2,"player": 14,"probability": 0.02239185699},
    {"dealer": 2,"player": 15,"probability": -0.0001206847405},
    {"dealer": 2,"player": 16,"probability": -0.02102518777},
    {"dealer": 2,"player": 17,"probability": -0.0004910435829},
    {"dealer": 2,"player": 18,"probability": 0.06290506947},
    {"dealer": 2,"player": 19,"probability": 0.1239580196},
    {"dealer": 2,"player": 20,"probability": 0.182499994},
    {"dealer": 2,"player": 21,"probability": 0.2383507495},

    {"dealer": 3,"player": 12,"probability": 0.1035070465},
    {"dealer": 3,"player": 13,"probability": 0.07411881339},
    {"dealer": 3,"player": 14,"probability": 0.05080673892},
    {"dealer": 3,"player": 15,"probability": 0.02915981262},
    {"dealer": 3,"player": 16,"probability": 0.009059095347},
    {"dealer": 3,"player": 17,"probability": 0.02897528297},
    {"dealer": 3,"player": 18,"probability": 0.09024827857},
    {"dealer": 3,"player": 19,"probability": 0.1493397087},
    {"dealer": 3,"player": 20,"probability": 0.2060879758},
    {"dealer": 3,"player": 21,"probability": 0.2603252673},

    {"dealer": 4,"player": 12,"probability": 0.1265956281},
    {"dealer": 4,"player": 13,"probability": 0.1024771469},
    {"dealer": 4,"player": 14,"probability": 0.08008141431},
    {"dealer": 4,"player": 15,"probability": 0.05928537693},
    {"dealer": 4,"player": 16,"probability": 0.03997477079},
    {"dealer": 4,"player": 17,"probability": 0.05932627534},
    {"dealer": 4,"player": 18,"probability": 0.1185019239},
    {"dealer": 4,"player": 19,"probability": 0.1755768056},
    {"dealer": 4,"player": 20,"probability": 0.2304701219},
    {"dealer": 4,"player": 21,"probability": 0.2830202752},

    {"dealer": 5,"player": 12,"probability": 0.1564823846},
    {"dealer": 5,"player": 13,"probability": 0.1333627385},
    {"dealer": 5,"player": 14,"probability": 0.1118944957},
    {"dealer": 5,"player": 15,"probability": 0.09195969878},
    {"dealer": 5,"player": 16,"probability": 0.07344881595},
    {"dealer": 5,"player": 17,"probability": 0.09118907769},
    {"dealer": 5,"player": 18,"probability": 0.1476127478},
    {"dealer": 5,"player": 19,"probability": 0.2029860345},
    {"dealer": 5,"player": 20,"probability": 0.2562585545},
    {"dealer": 5,"player": 21,"probability": 0.307349509},

    {"dealer": 6,"player": 12,"probability": 0.1859536133},
    {"dealer": 6,"player": 13,"probability": 0.1616927112},
    {"dealer": 6,"player": 14,"probability": 0.1391647307},
    {"dealer": 6,"player": 15,"probability": 0.1182458917},
    {"dealer": 6,"player": 16,"probability": 0.09882125545},
    {"dealer": 6,"player": 17,"probability": 0.1280521436},
    {"dealer": 6,"player": 18,"probability": 0.190753241},
    {"dealer": 6,"player": 19,"probability": 0.2397993544},
    {"dealer": 6,"player": 20,"probability": 0.2877950843},
    {"dealer": 6,"player": 21,"probability": 0.3336900475},

    {"dealer": 7,"player": 12,"probability": 0.1654729308},
    {"dealer": 7,"player": 13,"probability": 0.1223856952},
    {"dealer": 7,"player": 14,"probability": 0.07950748849},
    {"dealer": 7,"player": 15,"probability": 0.03702828228},
    {"dealer": 7,"player": 16,"probability": -0.004890157173},
    {"dealer": 7,"player": 17,"probability": 0.05382346372},
    {"dealer": 7,"player": 18,"probability": 0.1706764999},
    {"dealer": 7,"player": 19,"probability": 0.2206201142},
    {"dealer": 7,"player": 20,"probability": 0.2569087443},
    {"dealer": 7,"player": 21,"probability": 0.2921469911},

    {"dealer": 8,"player": 12,"probability": 0.09511502093},
    {"dealer": 8,"player": 13,"probability": 0.0540570702},
    {"dealer": 8,"player": 14,"probability": 0.01327721946},
    {"dealer": 8,"player": 15,"probability": -0.0270547805},
    {"dealer": 8,"player": 16,"probability": -0.06679484792},
    {"dealer": 8,"player": 17,"probability": -0.07291539873},
    {"dealer": 8,"player": 18,"probability": 0.03967744427},
    {"dealer": 8,"player": 19,"probability": 0.1522702873},
    {"dealer": 8,"player": 20,"probability": 0.1979537083},
    {"dealer": 8,"player": 21,"probability": 0.2299821453},

    {"dealer": 9,"player": 12,"probability": 0.00006579084123},
    {"dealer": 9,"player": 13,"probability": -0.03769468813},
    {"dealer": 9,"player": 14,"probability": -0.07516318944},
    {"dealer": 9,"player": 15,"probability": -0.1121887687},
    {"dealer": 9,"player": 16,"probability": -0.1486435346},
    {"dealer": 9,"player": 17,"probability": -0.1497868922},
    {"dealer": 9,"player": 18,"probability": -0.1007443076},
    {"dealer": 9,"player": 19,"probability": 0.007892641744},
    {"dealer": 9,"player": 20,"probability": 0.1165295911},
    {"dealer": 9,"player": 21,"probability": 0.1582571185},

    {"dealer": 10,"player": 12,"probability": -0.07000239736},
    {"dealer": 10,"player": 13,"probability": -0.1048513584},
    {"dealer": 10,"player": 14,"probability": -0.1394667822},
    {"dealer": 10,"player": 15,"probability": -0.1737042303},
    {"dealer": 10,"player": 16,"probability": -0.20744109},
    {"dealer": 10,"player": 17,"probability": -0.1968669762},
    {"dealer": 10,"player": 18,"probability": -0.1438081232},
    {"dealer": 10,"player": 19,"probability": -0.08809595391},
    {"dealer": 10,"player": 20,"probability": 0.02530852304},
    {"dealer": 10,"player": 21,"probability": 0.1194822308}
  ],
  "playerStandHardProbabilities": [
    {"dealer": 1,"player": 4,"probability": -0.6669507747},
    {"dealer": 1,"player": 5,"probability": -0.6669507747},
    {"dealer": 1,"player": 6,"probability": -0.6669507747},
    {"dealer": 1,"player": 7,"probability": -0.6669507747},
    {"dealer": 1,"player": 8,"probability": -0.6669507747},
    {"dealer": 1,"player": 9,"probability": -0.6669507747},
    {"dealer": 1,"player": 10,"probability": -0.6669507747},
    {"dealer": 1,"player": 11,"probability": -0.6669507747},
    {"dealer": 1,"player": 12,"probability": -0.6669507747},
    {"dealer": 1,"player": 13,"probability": -0.6669507747},
    {"dealer": 1,"player": 14,"probability": -0.6669507747},
    {"dealer": 1,"player": 15,"probability": -0.6669507747},
    {"dealer": 1,"player": 16,"probability": -0.6669507747},
    {"dealer": 1,"player": 17,"probability": -0.478033475},
    {"dealer": 1,"player": 18,"probability": -0.1001988756},
    {"dealer": 1,"player": 19,"probability": 0.2776357238},
    {"dealer": 1,"player": 20,"probability": 0.6554703231},
    {"dealer": 1,"player": 21,"probability": 0.9221938114},

    {"dealer": 2,"player": 4,"probability": -0.2927837272},
    {"dealer": 2,"player": 5,"probability": -0.2927837272},
    {"dealer": 2,"player": 6,"probability": -0.2927837272},
    {"dealer": 2,"player": 7,"probability": -0.2927837272},
    {"dealer": 2,"player": 8,"probability": -0.2927837272},
    {"dealer": 2,"player": 9,"probability": -0.2927837272},
    {"dealer": 2,"player": 10,"probability": -0.2927837272},
    {"dealer": 2,"player": 11,"probability": -0.2927837272},
    {"dealer": 2,"player": 12,"probability": -0.2927837272},
    {"dealer": 2,"player": 13,"probability": -0.2927837272},
    {"dealer": 2,"player": 14,"probability": -0.2927837272},
    {"dealer": 2,"player": 15,"probability": -0.2927837272},
    {"dealer": 2,"player": 16,"probability": -0.2927837272},
    {"dealer": 2,"player": 17,"probability": -0.1529745877},
    {"dealer": 2,"player": 18,"probability": 0.1217419022},
    {"dealer": 2,"player": 19,"probability": 0.386304686},
    {"dealer": 2,"player": 20,"probability": 0.6399865752},
    {"dealer": 2,"player": 21,"probability": 0.8820065155},

    {"dealer": 3,"player": 4,"probability": -0.2522502292},
    {"dealer": 3,"player": 5,"probability": -0.2522502292},
    {"dealer": 3,"player": 6,"probability": -0.2522502292},
    {"dealer": 3,"player": 7,"probability": -0.2522502292},
    {"dealer": 3,"player": 8,"probability": -0.2522502292},
    {"dealer": 3,"player": 9,"probability": -0.2522502292},
    {"dealer": 3,"player": 10,"probability": -0.2522502292},
    {"dealer": 3,"player": 11,"probability": -0.2522502292},
    {"dealer": 3,"player": 12,"probability": -0.2522502292},
    {"dealer": 3,"player": 13,"probability": -0.2522502292},
    {"dealer": 3,"player": 14,"probability": -0.2522502292},
    {"dealer": 3,"player": 15,"probability": -0.2522502292},
    {"dealer": 3,"player": 16,"probability": -0.2522502292},
    {"dealer": 3,"player": 17,"probability": -0.1172162414},
    {"dealer": 3,"player": 18,"probability": 0.1483000728},
    {"dealer": 3,"player": 19,"probability": 0.4043629366},
    {"dealer": 3,"player": 20,"probability": 0.6502720943},
    {"dealer": 3,"player": 21,"probability": 0.8853003573},

    {"dealer": 4,"player": 4,"probability": -0.211063109},
    {"dealer": 4,"player": 5,"probability": -0.211063109},
    {"dealer": 4,"player": 6,"probability": -0.211063109},
    {"dealer": 4,"player": 7,"probability": -0.211063109},
    {"dealer": 4,"player": 8,"probability": -0.211063109},
    {"dealer": 4,"player": 9,"probability": -0.211063109},
    {"dealer": 4,"player": 10,"probability": -0.211063109},
    {"dealer": 4,"player": 11,"probability": -0.211063109},
    {"dealer": 4,"player": 12,"probability": -0.211063109},
    {"dealer": 4,"player": 13,"probability": -0.211063109},
    {"dealer": 4,"player": 14,"probability": -0.211063109},
    {"dealer": 4,"player": 15,"probability": -0.211063109},
    {"dealer": 4,"player": 16,"probability": -0.211063109},
    {"dealer": 4,"player": 17,"probability": -0.08057337315},
    {"dealer": 4,"player": 18,"probability": 0.1758544372},
    {"dealer": 4,"player": 19,"probability": 0.4231789248},
    {"dealer": 4,"player": 20,"probability": 0.6610499619},
    {"dealer": 4,"player": 21,"probability": 0.888767293},

    {"dealer": 5,"player": 4,"probability": -0.1671926608},
    {"dealer": 5,"player": 5,"probability": -0.1671926608},
    {"dealer": 5,"player": 6,"probability": -0.1671926608},
    {"dealer": 5,"player": 7,"probability": -0.1671926608},
    {"dealer": 5,"player": 8,"probability": -0.1671926608},
    {"dealer": 5,"player": 9,"probability": -0.1671926608},
    {"dealer": 5,"player": 10,"probability": -0.1671926608},
    {"dealer": 5,"player": 11,"probability": -0.1671926608},
    {"dealer": 5,"player": 12,"probability": -0.1671926608},
    {"dealer": 5,"player": 13,"probability": -0.1671926608},
    {"dealer": 5,"player": 14,"probability": -0.1671926608},
    {"dealer": 5,"player": 15,"probability": -0.1671926608},
    {"dealer": 5,"player": 16,"probability": -0.1671926608},
    {"dealer": 5,"player": 17,"probability": -0.04494137556},
    {"dealer": 5,"player": 18,"probability": 0.199561195},
    {"dealer": 5,"player": 19,"probability": 0.4395121042},
    {"dealer": 5,"player": 20,"probability": 0.6703596906},
    {"dealer": 5,"player": 21,"probability": 0.8917538266},

    {"dealer": 6,"player": 4,"probability": -0.1536990158},
    {"dealer": 6,"player": 5,"probability": -0.1536990158},
    {"dealer": 6,"player": 6,"probability": -0.1536990158},
    {"dealer": 6,"player": 7,"probability": -0.1536990158},
    {"dealer": 6,"player": 8,"probability": -0.1536990158},
    {"dealer": 6,"player": 9,"probability": -0.1536990158},
    {"dealer": 6,"player": 10,"probability": -0.1536990158},
    {"dealer": 6,"player": 11,"probability": -0.1536990158},
    {"dealer": 6,"player": 12,"probability": -0.1536990158},
    {"dealer": 6,"player": 13,"probability": -0.1536990158},
    {"dealer": 6,"player": 14,"probability": -0.1536990158},
    {"dealer": 6,"player": 15,"probability": -0.1536990158},
    {"dealer": 6,"player": 16,"probability": -0.1536990158},
    {"dealer": 6,"player": 17,"probability": 0.01173916067},
    {"dealer": 6,"player": 18,"probability": 0.283443916},
    {"dealer": 6,"player": 19,"probability": 0.4959770738},
    {"dealer": 6,"player": 20,"probability": 0.7039585702},
    {"dealer": 6,"player": 21,"probability": 0.9028367438},

    {"dealer": 7,"player": 4,"probability": -0.4753751833},
    {"dealer": 7,"player": 5,"probability": -0.4753751833},
    {"dealer": 7,"player": 6,"probability": -0.4753751833},
    {"dealer": 7,"player": 7,"probability": -0.4753751833},
    {"dealer": 7,"player": 8,"probability": -0.4753751833},
    {"dealer": 7,"player": 9,"probability": -0.4753751833},
    {"dealer": 7,"player": 10,"probability": -0.4753751833},
    {"dealer": 7,"player": 11,"probability": -0.4753751833},
    {"dealer": 7,"player": 12,"probability": -0.4753751833},
    {"dealer": 7,"player": 13,"probability": -0.4753751833},
    {"dealer": 7,"player": 14,"probability": -0.4753751833},
    {"dealer": 7,"player": 15,"probability": -0.4753751833},
    {"dealer": 7,"player": 16,"probability": -0.4753751833},
    {"dealer": 7,"player": 17,"probability": -0.1068089895},
    {"dealer": 7,"player": 18,"probability": 0.3995541673},
    {"dealer": 7,"player": 19,"probability": 0.6159764958},
    {"dealer": 7,"player": 20,"probability": 0.7732272265},
    {"dealer": 7,"player": 21,"probability": 0.925926296},

    {"dealer": 8,"player": 4,"probability": -0.5105175155},
    {"dealer": 8,"player": 5,"probability": -0.5105175155},
    {"dealer": 8,"player": 6,"probability": -0.5105175155},
    {"dealer": 8,"player": 7,"probability": -0.5105175155},
    {"dealer": 8,"player": 8,"probability": -0.5105175155},
    {"dealer": 8,"player": 9,"probability": -0.5105175155},
    {"dealer": 8,"player": 10,"probability": -0.5105175155},
    {"dealer": 8,"player": 11,"probability": -0.5105175155},
    {"dealer": 8,"player": 12,"probability": -0.5105175155},
    {"dealer": 8,"player": 13,"probability": -0.5105175155},
    {"dealer": 8,"player": 14,"probability": -0.5105175155},
    {"dealer": 8,"player": 15,"probability": -0.5105175155},
    {"dealer": 8,"player": 16,"probability": -0.5105175155},
    {"dealer": 8,"player": 17,"probability": -0.381950971},
    {"dealer": 8,"player": 18,"probability": 0.1059513486},
    {"dealer": 8,"player": 19,"probability": 0.5938536683},
    {"dealer": 8,"player": 20,"probability": 0.7918151596},
    {"dealer": 8,"player": 21,"probability": 0.9306050532},

    {"dealer": 9,"player": 4,"probability": -0.5431496811},
    {"dealer": 9,"player": 5,"probability": -0.5431496811},
    {"dealer": 9,"player": 6,"probability": -0.5431496811},
    {"dealer": 9,"player": 7,"probability": -0.5431496811},
    {"dealer": 9,"player": 8,"probability": -0.5431496811},
    {"dealer": 9,"player": 9,"probability": -0.5431496811},
    {"dealer": 9,"player": 10,"probability": -0.5431496811},
    {"dealer": 9,"player": 11,"probability": -0.5431496811},
    {"dealer": 9,"player": 12,"probability": -0.5431496811},
    {"dealer": 9,"player": 13,"probability": -0.5431496811},
    {"dealer": 9,"player": 14,"probability": -0.5431496811},
    {"dealer": 9,"player": 15,"probability": -0.5431496811},
    {"dealer": 9,"player": 16,"probability": -0.5431496811},
    {"dealer": 9,"player": 17,"probability": -0.4231542396},
    {"dealer": 9,"player": 18,"probability": -0.1831633567},
    {"dealer": 9,"player": 19,"probability": 0.2875967571},
    {"dealer": 9,"player": 20,"probability": 0.7583568708},
    {"dealer": 9,"player": 21,"probability": 0.9391761561},

    {"dealer": 10,"player": 4,"probability": -0.540430334},
    {"dealer": 10,"player": 5,"probability": -0.540430334},
    {"dealer": 10,"player": 6,"probability": -0.540430334},
    {"dealer": 10,"player": 7,"probability": -0.540430334},
    {"dealer": 10,"player": 8,"probability": -0.540430334},
    {"dealer": 10,"player": 9,"probability": -0.540430334},
    {"dealer": 10,"player": 10,"probability": -0.540430334},
    {"dealer": 10,"player": 11,"probability": -0.540430334},
    {"dealer": 10,"player": 12,"probability": -0.540430334},
    {"dealer": 10,"player": 13,"probability": -0.540430334},
    {"dealer": 10,"player": 14,"probability": -0.540430334},
    {"dealer": 10,"player": 15,"probability": -0.540430334},
    {"dealer": 10,"player": 16,"probability": -0.540430334},
    {"dealer": 10,"player": 17,"probability": -0.4197206339},
    {"dealer": 10,"player": 18,"probability": -0.1783012338},
    {"dealer": 10,"player": 19,"probability": 0.06311816634},
    {"dealer": 10,"player": 20,"probability": 0.5545375665},
    {"dealer": 10,"player": 21,"probability": 0.9626236333}
  ],

  "playerStandSoftProbabilities": [
    {"dealer": 1,"player": 12,"probability": -0.6669507747},
    {"dealer": 1,"player": 13,"probability": -0.6669507747},
    {"dealer": 1,"player": 14,"probability": -0.6669507747},
    {"dealer": 1,"player": 15,"probability": -0.6669507747},
    {"dealer": 1,"player": 16,"probability": -0.6669507747},
    {"dealer": 1,"player": 17,"probability": -0.478033475},
    {"dealer": 1,"player": 18,"probability": -0.1001988756},
    {"dealer": 1,"player": 19,"probability": 0.2776357238},
    {"dealer": 1,"player": 20,"probability": 0.6554703231},
    {"dealer": 1,"player": 21,"probability": 0.9221938114},

    {"dealer": 2,"player": 12,"probability": -0.2927837272},
    {"dealer": 2,"player": 13,"probability": -0.2927837272},
    {"dealer": 2,"player": 14,"probability": -0.2927837272},
    {"dealer": 2,"player": 15,"probability": -0.2927837272},
    {"dealer": 2,"player": 16,"probability": -0.2927837272},
    {"dealer": 2,"player": 17,"probability": -0.1529745877},
    {"dealer": 2,"player": 18,"probability": 0.1217419022},
    {"dealer": 2,"player": 19,"probability": 0.386304686},
    {"dealer": 2,"player": 20,"probability": 0.6399865752},
    {"dealer": 2,"player": 21,"probability": 0.8820065155},

    {"dealer": 3,"player": 12,"probability": -0.2522502292},
    {"dealer": 3,"player": 13,"probability": -0.2522502292},
    {"dealer": 3,"player": 14,"probability": -0.2522502292},
    {"dealer": 3,"player": 15,"probability": -0.2522502292},
    {"dealer": 3,"player": 16,"probability": -0.2522502292},
    {"dealer": 3,"player": 17,"probability": -0.1172162414},
    {"dealer": 3,"player": 18,"probability": 0.1483000728},
    {"dealer": 3,"player": 19,"probability": 0.4043629366},
    {"dealer": 3,"player": 20,"probability": 0.6502720943},
    {"dealer": 3,"player": 21,"probability": 0.8853003573},

    {"dealer": 4,"player": 12,"probability": -0.211063109},
    {"dealer": 4,"player": 13,"probability": -0.211063109},
    {"dealer": 4,"player": 14,"probability": -0.211063109},
    {"dealer": 4,"player": 15,"probability": -0.211063109},
    {"dealer": 4,"player": 16,"probability": -0.211063109},
    {"dealer": 4,"player": 17,"probability": -0.08057337315},
    {"dealer": 4,"player": 18,"probability": 0.1758544372},
    {"dealer": 4,"player": 19,"probability": 0.4231789248},
    {"dealer": 4,"player": 20,"probability": 0.6610499619},
    {"dealer": 4,"player": 21,"probability": 0.888767293},

    {"dealer": 5,"player": 12,"probability": -0.1671926608},
    {"dealer": 5,"player": 13,"probability": -0.1671926608},
    {"dealer": 5,"player": 14,"probability": -0.1671926608},
    {"dealer": 5,"player": 15,"probability": -0.1671926608},
    {"dealer": 5,"player": 16,"probability": -0.1671926608},
    {"dealer": 5,"player": 17,"probability": -0.04494137556},
    {"dealer": 5,"player": 18,"probability": 0.199561195},
    {"dealer": 5,"player": 19,"probability": 0.4395121042},
    {"dealer": 5,"player": 20,"probability": 0.6703596906},
    {"dealer": 5,"player": 21,"probability": 0.8917538266},

    {"dealer": 6,"player": 12,"probability": -0.1536990158},
    {"dealer": 6,"player": 13,"probability": -0.1536990158},
    {"dealer": 6,"player": 14,"probability": -0.1536990158},
    {"dealer": 6,"player": 15,"probability": -0.1536990158},
    {"dealer": 6,"player": 16,"probability": -0.1536990158},
    {"dealer": 6,"player": 17,"probability": 0.01173916067},
    {"dealer": 6,"player": 18,"probability": 0.283443916},
    {"dealer": 6,"player": 19,"probability": 0.4959770738},
    {"dealer": 6,"player": 20,"probability": 0.7039585702},
    {"dealer": 6,"player": 21,"probability": 0.9028367438},

    {"dealer": 7,"player": 12,"probability": -0.4753751833},
    {"dealer": 7,"player": 13,"probability": -0.4753751833},
    {"dealer": 7,"player": 14,"probability": -0.4753751833},
    {"dealer": 7,"player": 15,"probability": -0.4753751833},
    {"dealer": 7,"player": 16,"probability": -0.4753751833},
    {"dealer": 7,"player": 17,"probability": -0.1068089895},
    {"dealer": 7,"player": 18,"probability": 0.3995541673},
    {"dealer": 7,"player": 19,"probability": 0.6159764958},
    {"dealer": 7,"player": 20,"probability": 0.7732272265},
    {"dealer": 7,"player": 21,"probability": 0.925926296},

    {"dealer": 8,"player": 12,"probability": -0.5105175155},
    {"dealer": 8,"player": 13,"probability": -0.5105175155},
    {"dealer": 8,"player": 14,"probability": -0.5105175155},
    {"dealer": 8,"player": 15,"probability": -0.5105175155},
    {"dealer": 8,"player": 16,"probability": -0.5105175155},
    {"dealer": 8,"player": 17,"probability": -0.381950971},
    {"dealer": 8,"player": 18,"probability": 0.1059513486},
    {"dealer": 8,"player": 19,"probability": 0.5938536683},
    {"dealer": 8,"player": 20,"probability": 0.7918151596},
    {"dealer": 8,"player": 21,"probability": 0.9306050532},

    {"dealer": 9,"player": 12,"probability": -0.5431496811},
    {"dealer": 9,"player": 13,"probability": -0.5431496811},
    {"dealer": 9,"player": 14,"probability": -0.5431496811},
    {"dealer": 9,"player": 15,"probability": -0.5431496811},
    {"dealer": 9,"player": 16,"probability": -0.5431496811},
    {"dealer": 9,"player": 17,"probability": -0.4231542396},
    {"dealer": 9,"player": 18,"probability": -0.1831633567},
    {"dealer": 9,"player": 19,"probability": 0.2875967571},
    {"dealer": 9,"player": 20,"probability": 0.7583568708},
    {"dealer": 9,"player": 21,"probability": 0.9391761561},

    {"dealer": 10,"player": 12,"probability": -0.540430334},
    {"dealer": 10,"player": 13,"probability": -0.540430334},
    {"dealer": 10,"player": 14,"probability": -0.540430334},
    {"dealer": 10,"player": 15,"probability": -0.540430334},
    {"dealer": 10,"player": 16,"probability": -0.540430334},
    {"dealer": 10,"player": 17,"probability": -0.4197206339},
    {"dealer": 10,"player": 18,"probability": -0.1783012338},
    {"dealer": 10,"player": 19,"probability": 0.06311816634},
    {"dealer": 10,"player": 20,"probability": 0.5545375665},
    {"dealer": 10,"player": 21,"probability": 0.9626236333}
  ],
  "playerSplitProbabilities": [
    {"dealer": 1,"player": 2,"probability": 0.250154},
    {"dealer": 1,"player": 4,"probability": -0.434640},
    {"dealer": 1,"player": 6,"probability": -0.483462},
    {"dealer": 1,"player": 8,"probability": -0.562359},
    {"dealer": 1,"player": 10,"probability": -0.673258},
    {"dealer": 1,"player": 12,"probability": -0.655157},
    {"dealer": 1,"player": 14,"probability": -0.652895},
    {"dealer": 1,"player": 16,"probability": -0.371677},
    {"dealer": 1,"player": 18,"probability": -0.137027},
    {"dealer": 1,"player": 20,"probability": -0.625214},

    {"dealer": 2,"player": 2,"probability": 0.609445},
    {"dealer": 2,"player": 4,"probability": -0.084155},
    {"dealer": 2,"player": 6,"probability": -0.137692},
    {"dealer": 2,"player": 8,"probability": -0.193336},
    {"dealer": 2,"player": 10,"probability": -0.294002},
    {"dealer": 2,"player": 12,"probability": -0.212318},
    {"dealer": 2,"player": 14,"probability": -0.130522},
    {"dealer": 2,"player": 16,"probability": 0.076025},
    {"dealer": 2,"player": 18,"probability": 0.196063},
    {"dealer": 2,"player": 20,"probability": -0.074979},

    {"dealer": 3,"player": 2,"probability": 0.657804},
    {"dealer": 3,"player": 4,"probability": -0.015253},
    {"dealer": 3,"player": 6,"probability": -0.055971},
    {"dealer": 3,"player": 8,"probability": -0.109404},
    {"dealer": 3,"player": 10,"probability": -0.212382},
    {"dealer": 3,"player": 12,"probability": -0.119040},
    {"dealer": 3,"player": 14,"probability": -0.042497},
    {"dealer": 3,"player": 16,"probability": 0.148549},
    {"dealer": 3,"player": 18,"probability": 0.259202},
    {"dealer": 3,"player": 20,"probability": 0.031222},

    {"dealer": 4,"player": 2,"probability": 0.707332},
    {"dealer": 4,"player": 4,"probability": 0.059731},
    {"dealer": 4,"player": 6,"probability": 0.030542},
    {"dealer": 4,"player": 8,"probability": -0.020746},
    {"dealer": 4,"player": 10,"probability": -0.122775},
    {"dealer": 4,"player": 12,"probability": -0.020195},
    {"dealer": 4,"player": 14,"probability": 0.050798},
    {"dealer": 4,"player": 16,"probability": 0.223409},
    {"dealer": 4,"player": 18,"probability": 0.324349},
    {"dealer": 4,"player": 20,"probability": 0.140765},

    {"dealer": 5,"player": 2,"probability": 0.756861},
    {"dealer": 5,"player": 4,"probability": 0.152637},
    {"dealer": 5,"player": 6,"probability": 0.127240},
    {"dealer": 5,"player": 8,"probability": 0.081979},
    {"dealer": 5,"player": 10,"probability": -0.022383},
    {"dealer": 5,"player": 12,"probability": 0.082383},
    {"dealer": 5,"player": 14,"probability": 0.148539},
    {"dealer": 5,"player": 16,"probability": 0.300229},
    {"dealer": 5,"player": 18,"probability": 0.393128},
    {"dealer": 5,"player": 20,"probability": 0.259969},

    {"dealer": 6,"player": 2,"probability": 0.816667},
    {"dealer": 6,"player": 4,"probability": 0.228169},
    {"dealer": 6,"player": 6,"probability": 0.202589},
    {"dealer": 6,"player": 8,"probability": 0.151592},
    {"dealer": 6,"player": 10,"probability": 0.042261},
    {"dealer": 6,"player": 12,"probability": 0.155490},
    {"dealer": 6,"player": 14,"probability": 0.249762},
    {"dealer": 6,"player": 16,"probability": 0.412667},
    {"dealer": 6,"player": 18,"probability": 0.472453},
    {"dealer": 6,"player": 20,"probability": 0.370201},

    {"dealer": 7,"player": 2,"probability": 0.633482},
    {"dealer": 7,"player": 4,"probability": 0.007306},
    {"dealer": 7,"player": 6,"probability": -0.052456},
    {"dealer": 7,"player": 8,"probability": -0.167926},
    {"dealer": 7,"player": 10,"probability": -0.297997},
    {"dealer": 7,"player": 12,"probability": -0.264733},
    {"dealer": 7,"player": 14,"probability": -0.048541},
    {"dealer": 7,"player": 16,"probability": 0.325404},
    {"dealer": 7,"player": 18,"probability": 0.364631},
    {"dealer": 7,"player": 20,"probability": 0.098762},

    {"dealer": 8,"player": 2,"probability": 0.507276},
    {"dealer": 8,"player": 4,"probability": -0.176796},
    {"dealer": 8,"player": 6,"probability": -0.231929},
    {"dealer": 8,"player": 8,"probability": -0.327646},
    {"dealer": 8,"player": 10,"probability": -0.458628},
    {"dealer": 8,"player": 12,"probability": -0.426032},
    {"dealer": 8,"player": 14,"probability": -0.392100},
    {"dealer": 8,"player": 16,"probability": -0.020154},
    {"dealer": 8,"player": 18,"probability": 0.235209},
    {"dealer": 8,"player": 20,"probability": -0.237545},

    {"dealer": 9,"player": 2,"probability": 0.367953},
    {"dealer": 9,"player": 4,"probability": -0.387749},
    {"dealer": 9,"player": 6,"probability": -0.437460},
    {"dealer": 9,"player": 8,"probability": -0.512936},
    {"dealer": 9,"player": 10,"probability": -0.638727},
    {"dealer": 9,"player": 12,"probability": -0.612180},
    {"dealer": 9,"player": 14,"probability": -0.578454},
    {"dealer": 9,"player": 16,"probability": -0.386505},
    {"dealer": 9,"player": 18,"probability": -0.077386},
    {"dealer": 9,"player": 20,"probability": -0.607417},

    {"dealer": 10,"player": 2,"probability": 0.310619},
    {"dealer": 10,"player": 4,"probability": -0.508467},
    {"dealer": 10,"player": 6,"probability": -0.554786},
    {"dealer": 10,"player": 8,"probability": -0.627271},
    {"dealer": 10,"player": 10,"probability": -0.734446},
    {"dealer": 10,"player": 12,"probability": -0.718090},
    {"dealer": 10,"player": 14,"probability": -0.658400},
    {"dealer": 10,"player": 16,"probability": -0.480335},
    {"dealer": 10,"player": 18,"probability": -0.318160},
    {"dealer": 10,"player": 20,"probability": -0.755656}
  ]

}